{
	"action": null,
	"attachmentLayout": null,
	"attachments": [
		{
			"content": "<div><div><span itemscope=\"\" itemtype=\"http://schema.skype.com/Mention\" itemid=\"0\">Eliza</span> Test</div>\n</div>",
			"contentType": "text/html",
			"contentUrl": null,
			"name": null,
			"thumbnailUrl": null
		}
	],
	"channelData": {
		"channel": {
			"id": "19:30a487a34a854d9197146147c416dd01@thread.tacv2"
		},
		"team": {
			"id": "19:30a487a34a854d9197146147c416dd01@thread.tacv2"
		},
		"teamsChannelId": "19:30a487a34a854d9197146147c416dd01@thread.tacv2",
		"teamsTeamId": "19:30a487a34a854d9197146147c416dd01@thread.tacv2",
		"tenant": {
			"id": "763b2760-45c5-46d3-883e-29705bba49b7"
		}
	},
	"channelId": "msteams",
	"code": null,
	"conversation": {
		"conversationType": "channel",
		"id": "19:30a487a34a854d9197146147c416dd01@thread.tacv2;messageid=1612351038793",
		"isGroup": true,
		"name": null,
		"tenantId": "763b2760-45c5-46d3-883e-29705bba49b7"
	},
	"entities": [
		{
			"country": "DE",
			"locale": "de-DE",
			"platform": "Windows",
			"timezone": "Europe/Berlin",
			"type": "clientInfo"
		}
	],
	"from": {
		"aadObjectId": "2298ef16-6830-40f5-8d1b-b292e9804c49",
		"id": "29:1MGqaJnpG4zSc-7YB7NNKyx4zhRaOUtx-XxcemXqBzY-kez68i1bbhSeMmaoNxiYH4IUtLOIrSxRPDyynDqnVdw",
		"name": "Carol Shaw"
	},
	"historyDisclosed": null,
	"id": "1612351113266",
	"inputHint": null,
	"localTimestamp": "2021-02-03T12:18:33.2912547+01:00",
	"localTimezone": "Europe/Berlin",
	"locale": "de-DE",
	"membersAdded": null,
	"membersRemoved": null,
	"name": null,
	"recipient": null,
	"relatesTo": null,
	"replyToId": null,
	"serviceUrl": "https://smba.trafficmanager.net/emea/",
	"speak": null,
	"suggestedActions": null,
	"summary": null,
	"text": "<at>Eliza</at> Test\n",
	"textFormat": "plain",
	"timestamp": "2021-02-03T11:18:33.2912547Z",
	"topicName": null,
	"type": "message",
	"value": null
}
